solid Exported from Blender-3.3.1
facet normal -0.504120 -0.753962 0.421193
outer loop
vertex -7.100107 2.951314 29.067286
vertex -7.095336 2.971438 29.108990
vertex -7.088468 3.014650 29.194511
endloop
endfacet
facet normal -0.502921 -0.754483 0.421693
outer loop
vertex -7.088468 3.014650 29.194511
vertex -7.074903 3.084358 29.335436
vertex -7.073838 3.126171 29.411530
endloop
endfacet
facet normal -0.503028 -0.754424 0.421672
outer loop
vertex -7.073838 3.126171 29.411530
vertex -7.077362 3.203093 29.544973
vertex -7.086324 3.278489 29.669197
endloop
endfacet
facet normal -0.503102 -0.754420 0.421590
outer loop
vertex -7.086324 3.278489 29.669197
vertex -7.090926 3.311839 29.723385
vertex -7.120517 3.432696 29.904343
endloop
endfacet
facet normal -0.503864 -0.753971 0.421484
outer loop
vertex -7.120517 3.432696 29.904343
vertex -7.131168 3.462254 29.944527
vertex -7.141153 3.488672 29.979885
endloop
endfacet
facet normal -0.504644 -0.753766 0.420917
outer loop
vertex -7.141153 3.488672 29.979885
vertex -7.183723 3.596156 30.121424
vertex -7.193902 3.619923 30.151808
endloop
endfacet
facet normal -0.507854 -0.752603 0.419133
outer loop
vertex -7.193902 3.619923 30.151808
vertex -7.218768 3.666685 30.205816
vertex -7.268081 3.758106 30.310568
endloop
endfacet
facet normal -0.503255 -0.754343 0.421545
outer loop
vertex -7.268081 3.758106 30.310568
vertex -7.323721 3.850317 30.409180
vertex -7.407007 3.969922 30.523825
endloop
endfacet
facet normal -0.503064 -0.754429 0.421620
outer loop
vertex -7.407007 3.969922 30.523825
vertex -7.457463 4.043103 30.594572
vertex -7.516011 4.119031 30.660580
endloop
endfacet
facet normal -0.502896 -0.754551 0.421602
outer loop
vertex -7.516011 4.119031 30.660580
vertex -7.644708 4.275957 30.787821
vertex -7.725108 4.368313 30.857149
endloop
endfacet
facet normal -0.504320 -0.754679 0.419667
outer loop
vertex -7.842838 4.492777 30.939390
vertex -7.864084 4.515427 30.954571
vertex -7.883631 4.535774 30.967655
endloop
endfacet
facet normal -0.503076 -0.754418 0.421625
outer loop
vertex -7.516011 4.119031 30.660580
vertex -7.725108 4.368313 30.857149
vertex -7.842838 4.492777 30.939390
endloop
endfacet
facet normal -0.503013 -0.754435 0.421670
outer loop
vertex -7.268081 3.758106 30.310568
vertex -7.407007 3.969922 30.523825
vertex -7.516011 4.119031 30.660580
endloop
endfacet
facet normal -0.503144 -0.754387 0.421601
outer loop
vertex -7.141153 3.488672 29.979885
vertex -7.193902 3.619923 30.151808
vertex -7.268081 3.758106 30.310568
endloop
endfacet
facet normal -0.503068 -0.754444 0.421588
outer loop
vertex -7.086324 3.278489 29.669197
vertex -7.120517 3.432696 29.904343
vertex -7.141153 3.488672 29.979885
endloop
endfacet
facet normal -0.503102 -0.754431 0.421571
outer loop
vertex -7.088468 3.014650 29.194511
vertex -7.073838 3.126171 29.411530
vertex -7.086324 3.278489 29.669197
endloop
endfacet
facet normal -0.503019 -0.754435 0.421664
outer loop
vertex -7.117177 2.904614 28.963348
vertex -7.100107 2.951314 29.067286
vertex -7.088468 3.014650 29.194511
endloop
endfacet
facet normal -0.505190 -0.754124 0.419619
outer loop
vertex -7.156084 2.809186 28.746159
vertex -7.136921 2.855837 28.852505
vertex -7.117177 2.904614 28.963348
endloop
endfacet
facet normal -0.501969 -0.755028 0.421851
outer loop
vertex -7.189227 2.752721 28.605570
vertex -7.180058 2.766148 28.640539
vertex -7.156084 2.809186 28.746159
endloop
endfacet
facet normal -0.502751 -0.754559 0.421762
outer loop
vertex -7.265743 2.654685 28.338835
vertex -7.224571 2.704399 28.476925
vertex -7.189227 2.752721 28.605570
endloop
endfacet
facet normal -0.502478 -0.754834 0.421593
outer loop
vertex -7.325357 2.585568 28.144018
vertex -7.304398 2.606848 28.207108
vertex -7.265743 2.654685 28.338835
endloop
endfacet
facet normal -0.503104 -0.754432 0.421568
outer loop
vertex -7.422492 2.503541 27.881329
vertex -7.397474 2.523113 27.946203
vertex -7.362923 2.554626 28.043821
endloop
endfacet
facet normal -0.503232 -0.754313 0.421627
outer loop
vertex -7.362923 2.554626 28.043821
vertex -7.325357 2.585568 28.144018
vertex -7.265743 2.654685 28.338835
endloop
endfacet
facet normal -0.503364 -0.754296 0.421501
outer loop
vertex -7.265743 2.654685 28.338835
vertex -7.189227 2.752721 28.605570
vertex -7.156084 2.809186 28.746159
endloop
endfacet
facet normal -0.502925 -0.754517 0.421628
outer loop
vertex -7.156084 2.809186 28.746159
vertex -7.117177 2.904614 28.963348
vertex -7.088468 3.014650 29.194511
endloop
endfacet
facet normal -0.503064 -0.754435 0.421609
outer loop
vertex -7.088468 3.014650 29.194511
vertex -7.086324 3.278489 29.669197
vertex -7.141153 3.488672 29.979885
endloop
endfacet
facet normal -0.503039 -0.754452 0.421608
outer loop
vertex -7.141153 3.488672 29.979885
vertex -7.268081 3.758106 30.310568
vertex -7.516011 4.119031 30.660580
endloop
endfacet
facet normal -0.502931 -0.754534 0.421590
outer loop
vertex -7.516011 4.119031 30.660580
vertex -7.842838 4.492777 30.939390
vertex -7.883631 4.535774 30.967655
endloop
endfacet
facet normal -0.502599 -0.754695 0.421699
outer loop
vertex -7.883631 4.535774 30.967655
vertex -7.995522 4.645924 31.031248
vertex -8.160298 4.802493 31.114801
endloop
endfacet
facet normal -0.497594 -0.759485 0.419026
outer loop
vertex -8.160298 4.802493 31.114801
vertex -8.171789 4.813600 31.120964
vertex -8.178266 4.819775 31.124287
endloop
endfacet
facet normal -0.502870 -0.754567 0.421605
outer loop
vertex -8.216219 4.852995 31.138443
vertex -8.349478 4.969678 31.188231
vertex -8.394933 5.007492 31.201656
endloop
endfacet
facet normal -0.503815 -0.754127 0.421264
outer loop
vertex -8.160298 4.802493 31.114801
vertex -8.178266 4.819775 31.124287
vertex -8.216219 4.852995 31.138443
endloop
endfacet
facet normal -0.503102 -0.754414 0.421600
outer loop
vertex -7.516011 4.119031 30.660580
vertex -7.883631 4.535774 30.967655
vertex -8.160298 4.802493 31.114801
endloop
endfacet
facet normal -0.503081 -0.754430 0.421598
outer loop
vertex -7.088468 3.014650 29.194511
vertex -7.141153 3.488672 29.979885
vertex -7.516011 4.119031 30.660580
endloop
endfacet
facet normal -0.503038 -0.754458 0.421599
outer loop
vertex -7.265743 2.654685 28.338835
vertex -7.156084 2.809186 28.746159
vertex -7.088468 3.014650 29.194511
endloop
endfacet
facet normal -0.503138 -0.754404 0.421577
outer loop
vertex -7.422492 2.503541 27.881329
vertex -7.362923 2.554626 28.043821
vertex -7.265743 2.654685 28.338835
endloop
endfacet
facet normal -0.502631 -0.754808 0.421458
outer loop
vertex -7.576138 2.428629 27.563936
vertex -7.556516 2.434918 27.598602
vertex -7.538774 2.444320 27.636600
endloop
endfacet
facet normal -0.503049 -0.754452 0.421597
outer loop
vertex -7.538774 2.444320 27.636600
vertex -7.422492 2.503541 27.881329
vertex -7.265743 2.654685 28.338835
endloop
endfacet
facet normal -0.503078 -0.754431 0.421600
outer loop
vertex -7.265743 2.654685 28.338835
vertex -7.088468 3.014650 29.194511
vertex -7.516011 4.119031 30.660580
endloop
endfacet
facet normal -0.503179 -0.754406 0.421523
outer loop
vertex -7.516011 4.119031 30.660580
vertex -8.160298 4.802493 31.114801
vertex -8.216219 4.852995 31.138443
endloop
endfacet
facet normal -0.503289 -0.754388 0.421425
outer loop
vertex -8.216219 4.852995 31.138443
vertex -8.394933 5.007492 31.201656
vertex -8.567140 5.150696 31.252426
endloop
endfacet
facet normal -0.503328 -0.754286 0.421561
outer loop
vertex -8.567140 5.150696 31.252426
vertex -8.641210 5.209732 31.269682
vertex -8.774914 5.304996 31.280609
endloop
endfacet
facet normal -0.500321 -0.755737 0.422540
outer loop
vertex -8.774914 5.304996 31.280609
vertex -8.834803 5.348799 31.287529
vertex -8.972358 5.448607 31.301992
endloop
endfacet
facet normal -0.504103 -0.754252 0.420695
outer loop
vertex -8.972358 5.448607 31.301992
vertex -9.071229 5.510756 31.295225
vertex -9.189406 5.584206 31.285643
endloop
endfacet
facet normal -0.492624 -0.768325 0.408654
outer loop
vertex -9.189406 5.584206 31.285643
vertex -9.327839 5.669967 31.273924
vertex -9.409176 5.720325 31.266979
endloop
endfacet
facet normal -0.503029 -0.754432 0.421657
outer loop
vertex -9.409176 5.720325 31.266979
vertex -9.485099 5.761014 31.249195
vertex -9.722151 5.882151 31.183100
endloop
endfacet
facet normal -0.503379 -0.754087 0.421856
outer loop
vertex -9.722151 5.882151 31.183100
vertex -9.798450 5.914267 31.149523
vertex -10.011907 5.998749 31.045990
endloop
endfacet
facet normal -0.468850 -0.777304 0.419497
outer loop
vertex -10.121096 6.039793 30.989145
vertex -10.176758 6.060740 30.960211
vertex -10.328148 6.117640 30.881382
endloop
endfacet
facet normal -0.502859 -0.754528 0.421687
outer loop
vertex -9.722151 5.882151 31.183100
vertex -10.011907 5.998749 31.045990
vertex -10.121096 6.039793 30.989145
endloop
endfacet
facet normal -0.503140 -0.754389 0.421602
outer loop
vertex -9.189406 5.584206 31.285643
vertex -9.409176 5.720325 31.266979
vertex -9.722151 5.882151 31.183100
endloop
endfacet
facet normal -0.503117 -0.754412 0.421588
outer loop
vertex -8.774914 5.304996 31.280609
vertex -8.972358 5.448607 31.301992
vertex -9.189406 5.584206 31.285643
endloop
endfacet
facet normal -0.503069 -0.754436 0.421602
outer loop
vertex -8.216219 4.852995 31.138443
vertex -8.567140 5.150696 31.252426
vertex -8.774914 5.304996 31.280609
endloop
endfacet
facet normal -0.503077 -0.754432 0.421599
outer loop
vertex -7.265743 2.654685 28.338835
vertex -7.516011 4.119031 30.660580
vertex -8.216219 4.852995 31.138443
endloop
endfacet
facet normal -0.503084 -0.754402 0.421645
outer loop
vertex -7.576138 2.428629 27.563936
vertex -7.538774 2.444320 27.636600
vertex -7.265743 2.654685 28.338835
endloop
endfacet
facet normal -0.503132 -0.754294 0.421779
outer loop
vertex -7.786500 2.388178 27.240534
vertex -7.746560 2.393789 27.298233
vertex -7.576138 2.428629 27.563936
endloop
endfacet
facet normal -0.503672 -0.753871 0.421891
outer loop
vertex -7.962586 2.388977 27.031845
vertex -7.850528 2.388138 27.164059
vertex -7.786500 2.388178 27.240534
endloop
endfacet
facet normal -0.503114 -0.754413 0.421589
outer loop
vertex -8.221214 2.427259 26.791739
vertex -8.077932 2.401729 26.917027
vertex -7.962586 2.388977 27.031845
endloop
endfacet
facet normal -0.503093 -0.754417 0.421607
outer loop
vertex -8.480644 2.500027 26.612387
vertex -8.335808 2.453770 26.702440
vertex -8.221214 2.427259 26.791739
endloop
endfacet
facet normal -0.503383 -0.754501 0.421110
outer loop
vertex -8.606111 2.541778 26.537384
vertex -8.568796 2.528662 26.558439
vertex -8.480644 2.500027 26.612387
endloop
endfacet
facet normal -0.502998 -0.754452 0.421657
outer loop
vertex -8.968010 2.696885 26.383099
vertex -8.891575 2.660310 26.408857
vertex -8.672496 2.570168 26.508970
endloop
endfacet
facet normal -0.503021 -0.754404 0.421717
outer loop
vertex -8.672496 2.570168 26.508970
vertex -8.606111 2.541778 26.537384
vertex -8.480644 2.500027 26.612387
endloop
endfacet
facet normal -0.503081 -0.754429 0.421601
outer loop
vertex -8.480644 2.500027 26.612387
vertex -8.221214 2.427259 26.791739
vertex -7.962586 2.388977 27.031845
endloop
endfacet
facet normal -0.503056 -0.754460 0.421573
outer loop
vertex -7.962586 2.388977 27.031845
vertex -7.786500 2.388178 27.240534
vertex -7.576138 2.428629 27.563936
endloop
endfacet
facet normal -0.503079 -0.754431 0.421598
outer loop
vertex -7.576138 2.428629 27.563936
vertex -7.265743 2.654685 28.338835
vertex -8.216219 4.852995 31.138443
endloop
endfacet
facet normal -0.503075 -0.754434 0.421599
outer loop
vertex -8.216219 4.852995 31.138443
vertex -8.774914 5.304996 31.280609
vertex -9.189406 5.584206 31.285643
endloop
endfacet
facet normal -0.503075 -0.754440 0.421587
outer loop
vertex -9.189406 5.584206 31.285643
vertex -9.722151 5.882151 31.183100
vertex -10.121096 6.039793 30.989145
endloop
endfacet
facet normal -0.506935 -0.751620 0.422001
outer loop
vertex -10.121096 6.039793 30.989145
vertex -10.328148 6.117640 30.881382
vertex -10.337607 6.121060 30.876215
endloop
endfacet
facet normal -0.502987 -0.754480 0.421621
outer loop
vertex -10.337607 6.121060 30.876215
vertex -10.342368 6.122783 30.873617
vertex -10.369043 6.131366 30.857145
endloop
endfacet
facet normal -0.511290 -0.753274 0.413715
outer loop
vertex -10.369043 6.131366 30.857145
vertex -10.595184 6.200991 30.711891
vertex -10.658733 6.220501 30.670971
endloop
endfacet
facet normal -0.479323 -0.778901 0.404429
outer loop
vertex -10.658733 6.220501 30.670971
vertex -10.729578 6.238008 30.617765
vertex -10.939305 6.289745 30.460087
endloop
endfacet
facet normal -0.577350 -0.577350 0.577350
outer loop
vertex -10.939305 6.289745 30.460087
vertex -10.964753 6.295030 30.439177
vertex -10.987060 6.299659 30.420843
endloop
endfacet
facet normal -0.502475 -0.754397 0.422380
outer loop
vertex -10.987060 6.299659 30.420843
vertex -11.134955 6.323215 30.286516
vertex -11.284869 6.346595 30.149467
endloop
endfacet
facet normal -0.503140 -0.754212 0.421918
outer loop
vertex -11.296796 6.348052 30.137842
vertex -11.310957 6.349784 30.124044
vertex -11.358557 6.350933 30.069302
endloop
endfacet
facet normal -0.502959 -0.754713 0.421235
outer loop
vertex -10.987060 6.299659 30.420843
vertex -11.284869 6.346595 30.149467
vertex -11.296796 6.348052 30.137842
endloop
endfacet
facet normal -0.503419 -0.754219 0.421572
outer loop
vertex -10.658733 6.220501 30.670971
vertex -10.939305 6.289745 30.460087
vertex -10.987060 6.299659 30.420843
endloop
endfacet
facet normal -0.502109 -0.754808 0.422079
outer loop
vertex -10.337607 6.121060 30.876215
vertex -10.369043 6.131366 30.857145
vertex -10.658733 6.220501 30.670971
endloop
endfacet
facet normal -0.503096 -0.754406 0.421623
outer loop
vertex -9.189406 5.584206 31.285643
vertex -10.121096 6.039793 30.989145
vertex -10.337607 6.121060 30.876215
endloop
endfacet
facet normal -0.503076 -0.754433 0.421599
outer loop
vertex -7.576138 2.428629 27.563936
vertex -8.216219 4.852995 31.138443
vertex -9.189406 5.584206 31.285643
endloop
endfacet
facet normal -0.503074 -0.754435 0.421598
outer loop
vertex -8.480644 2.500027 26.612387
vertex -7.962586 2.388977 27.031845
vertex -7.576138 2.428629 27.563936
endloop
endfacet
facet normal -0.503114 -0.754418 0.421580
outer loop
vertex -8.968010 2.696885 26.383099
vertex -8.672496 2.570168 26.508970
vertex -8.480644 2.500027 26.612387
endloop
endfacet
facet normal -0.502113 -0.754881 0.421946
outer loop
vertex -9.230029 2.829555 26.307850
vertex -9.215239 2.821530 26.311138
vertex -9.183182 2.805626 26.320930
endloop
endfacet
facet normal -0.503090 -0.754428 0.421591
outer loop
vertex -9.183182 2.805626 26.320930
vertex -8.968010 2.696885 26.383099
vertex -8.480644 2.500027 26.612387
endloop
endfacet
facet normal -0.503077 -0.754432 0.421599
outer loop
vertex -8.480644 2.500027 26.612387
vertex -7.576138 2.428629 27.563936
vertex -9.189406 5.584206 31.285643
endloop
endfacet
facet normal -0.503073 -0.754442 0.421585
outer loop
vertex -9.189406 5.584206 31.285643
vertex -10.337607 6.121060 30.876215
vertex -10.658733 6.220501 30.670971
endloop
endfacet
facet normal -0.503038 -0.754470 0.421577
outer loop
vertex -10.658733 6.220501 30.670971
vertex -10.987060 6.299659 30.420843
vertex -11.296796 6.348052 30.137842
endloop
endfacet
facet normal -0.503254 -0.754337 0.421557
outer loop
vertex -11.296796 6.348052 30.137842
vertex -11.358557 6.350933 30.069302
vertex -11.491735 6.354157 29.916155
endloop
endfacet
facet normal -0.503116 -0.754583 0.421282
outer loop
vertex -11.491735 6.354157 29.916155
vertex -11.559148 6.355770 29.838600
vertex -11.634225 6.354863 29.747391
endloop
endfacet
facet normal -0.487377 -0.758143 0.433224
outer loop
vertex -11.707749 6.337426 29.628454
vertex -11.750907 6.327201 29.558659
vertex -11.803418 6.314738 29.473696
endloop
endfacet
facet normal -0.503075 -0.754424 0.421617
outer loop
vertex -11.491735 6.354157 29.916155
vertex -11.634225 6.354863 29.747391
vertex -11.707749 6.337426 29.628454
endloop
endfacet
facet normal -0.503090 -0.754422 0.421601
outer loop
vertex -10.658733 6.220501 30.670971
vertex -11.296796 6.348052 30.137842
vertex -11.491735 6.354157 29.916155
endloop
endfacet
facet normal -0.503080 -0.754431 0.421599
outer loop
vertex -8.480644 2.500027 26.612387
vertex -9.189406 5.584206 31.285643
vertex -10.658733 6.220501 30.670971
endloop
endfacet
facet normal -0.502879 -0.754561 0.421605
outer loop
vertex -9.230029 2.829555 26.307850
vertex -9.183182 2.805626 26.320930
vertex -8.480644 2.500027 26.612387
endloop
endfacet
facet normal -0.509194 -0.752268 0.418109
outer loop
vertex -9.509570 2.983243 26.249300
vertex -9.474582 2.963844 26.256336
vertex -9.230029 2.829555 26.307850
endloop
endfacet
facet normal -0.496351 -0.757283 0.424450
outer loop
vertex -9.811218 3.156725 26.199795
vertex -9.760702 3.127553 26.207870
vertex -9.562988 3.014235 26.241018
endloop
endfacet
facet normal -0.502394 -0.754920 0.421541
outer loop
vertex -9.562988 3.014235 26.241018
vertex -9.509570 2.983243 26.249300
vertex -9.230029 2.829555 26.307850
endloop
endfacet
facet normal -0.503076 -0.754433 0.421599
outer loop
vertex -9.230029 2.829555 26.307850
vertex -8.480644 2.500027 26.612387
vertex -10.658733 6.220501 30.670971
endloop
endfacet
facet normal -0.503068 -0.754441 0.421593
outer loop
vertex -10.658733 6.220501 30.670971
vertex -11.491735 6.354157 29.916155
vertex -11.707749 6.337426 29.628454
endloop
endfacet
facet normal -0.503137 -0.754422 0.421547
outer loop
vertex -11.707749 6.337426 29.628454
vertex -11.803418 6.314738 29.473696
vertex -11.854866 6.298829 29.383837
endloop
endfacet
facet normal -0.498802 -0.767388 0.402879
outer loop
vertex -11.887380 6.279531 29.310509
vertex -11.943604 6.246186 29.183748
vertex -11.995634 6.215306 29.066404
endloop
endfacet
facet normal -0.503180 -0.754358 0.421609
outer loop
vertex -11.707749 6.337426 29.628454
vertex -11.854866 6.298829 29.383837
vertex -11.887380 6.279531 29.310509
endloop
endfacet
facet normal -0.503078 -0.754431 0.421600
outer loop
vertex -9.230029 2.829555 26.307850
vertex -10.658733 6.220501 30.670971
vertex -11.707749 6.337426 29.628454
endloop
endfacet
facet normal -0.503362 -0.754258 0.421572
outer loop
vertex -9.811218 3.156725 26.199795
vertex -9.562988 3.014235 26.241018
vertex -9.230029 2.829555 26.307850
endloop
endfacet
facet normal -0.503711 -0.753485 0.422534
outer loop
vertex -10.066776 3.305795 26.161598
vertex -9.986290 3.258657 26.173290
vertex -9.811218 3.156725 26.199795
endloop
endfacet
facet normal -0.502649 -0.754717 0.421600
outer loop
vertex -10.338302 3.464508 26.121609
vertex -10.322184 3.454838 26.123537
vertex -10.066776 3.305795 26.161598
endloop
endfacet
facet normal -0.502079 -0.754597 0.422492
outer loop
vertex -10.704288 3.695149 26.097612
vertex -10.577434 3.614776 26.105160
vertex -10.357034 3.476878 26.121391
endloop
endfacet
facet normal -0.503463 -0.754153 0.421638
outer loop
vertex -10.357034 3.476878 26.121391
vertex -10.338302 3.464508 26.121609
vertex -10.066776 3.305795 26.161598
endloop
endfacet
facet normal -0.503039 -0.754425 0.421657
outer loop
vertex -10.066776 3.305795 26.161598
vertex -9.811218 3.156725 26.199795
vertex -9.230029 2.829555 26.307850
endloop
endfacet
facet normal -0.503074 -0.754434 0.421598
outer loop
vertex -9.230029 2.829555 26.307850
vertex -11.707749 6.337426 29.628454
vertex -11.887380 6.279531 29.310509
endloop
endfacet
facet normal -0.502917 -0.754547 0.421583
outer loop
vertex -11.995634 6.215306 29.066404
vertex -12.029303 6.195393 28.990593
vertex -12.038000 6.185895 28.963221
endloop
endfacet
facet normal -0.503086 -0.754427 0.421598
outer loop
vertex -9.230029 2.829555 26.307850
vertex -11.887380 6.279531 29.310509
vertex -11.995634 6.215306 29.066404
endloop
endfacet
facet normal -0.502935 -0.754524 0.421604
outer loop
vertex -10.357034 3.476878 26.121391
vertex -10.066776 3.305795 26.161598
vertex -9.230029 2.829555 26.307850
endloop
endfacet
facet normal -0.503390 -0.754297 0.421468
outer loop
vertex -10.812778 3.764903 26.092978
vertex -10.704288 3.695149 26.097612
vertex -10.357034 3.476878 26.121391
endloop
endfacet
facet normal -0.503060 -0.754442 0.421602
outer loop
vertex -11.210825 4.102692 26.222462
vertex -10.964139 3.879661 26.117718
vertex -10.812778 3.764903 26.092978
endloop
endfacet
facet normal -0.502837 -0.754481 0.421797
outer loop
vertex -11.254000 4.150095 26.255766
vertex -11.223403 4.114573 26.228712
vertex -11.210825 4.102692 26.222462
endloop
endfacet
facet normal -0.503002 -0.754504 0.421560
outer loop
vertex -11.434978 4.359258 26.414103
vertex -11.384200 4.298599 26.366146
vertex -11.254000 4.150095 26.255766
endloop
endfacet
facet normal -0.481926 -0.768069 0.421685
outer loop
vertex -11.543832 4.511550 26.556730
vertex -11.478305 4.419845 26.470818
vertex -11.434978 4.359258 26.414103
endloop
endfacet
facet normal -0.503251 -0.754362 0.421517
outer loop
vertex -11.674965 4.713302 26.761278
vertex -11.604126 4.599094 26.641439
vertex -11.543832 4.511550 26.556730
endloop
endfacet
facet normal -0.502479 -0.755361 0.420648
outer loop
vertex -11.735547 4.813150 26.867662
vertex -11.696089 4.747360 26.797018
vertex -11.674965 4.713302 26.761278
endloop
endfacet
facet normal -0.502440 -0.754760 0.421772
outer loop
vertex -11.835871 4.993479 27.070641
vertex -11.759467 4.852958 26.910353
vertex -11.735547 4.813150 26.867662
endloop
endfacet
facet normal -0.507919 -0.754623 0.415406
outer loop
vertex -11.927300 5.148950 27.239750
vertex -11.858951 5.032613 27.113129
vertex -11.848525 5.014943 27.093948
endloop
endfacet
facet normal -0.503071 -0.754385 0.421690
outer loop
vertex -11.835871 4.993479 27.070641
vertex -11.735547 4.813150 26.867662
vertex -11.674965 4.713302 26.761278
endloop
endfacet
facet normal -0.502798 -0.754197 0.422351
outer loop
vertex -11.927300 5.148950 27.239750
vertex -11.848525 5.014943 27.093948
vertex -11.835871 4.993479 27.070641
endloop
endfacet
facet normal -0.518379 -0.743010 0.423343
outer loop
vertex -11.983930 5.269250 27.387447
vertex -11.974502 5.249144 27.362717
vertex -11.946066 5.188811 27.288687
endloop
endfacet
facet normal -0.503246 -0.754315 0.421606
outer loop
vertex -11.946066 5.188811 27.288687
vertex -11.927300 5.148950 27.239750
vertex -11.835871 4.993479 27.070641
endloop
endfacet
facet normal -0.503145 -0.754389 0.421595
outer loop
vertex -11.835871 4.993479 27.070641
vertex -11.674965 4.713302 26.761278
vertex -11.543832 4.511550 26.556730
endloop
endfacet
facet normal -0.503143 -0.754378 0.421617
outer loop
vertex -11.543832 4.511550 26.556730
vertex -11.434978 4.359258 26.414103
vertex -11.254000 4.150095 26.255766
endloop
endfacet
facet normal -0.503189 -0.754361 0.421592
outer loop
vertex -11.254000 4.150095 26.255766
vertex -11.210825 4.102692 26.222462
vertex -10.812778 3.764903 26.092978
endloop
endfacet
facet normal -0.503088 -0.754431 0.421588
outer loop
vertex -10.812778 3.764903 26.092978
vertex -10.357034 3.476878 26.121391
vertex -9.230029 2.829555 26.307850
endloop
endfacet
facet normal -0.503051 -0.754443 0.421610
outer loop
vertex -9.230029 2.829555 26.307850
vertex -11.995634 6.215306 29.066404
vertex -12.038000 6.185895 28.963221
endloop
endfacet
facet normal -0.665790 -0.630748 0.398598
outer loop
vertex -12.038000 6.185895 28.963221
vertex -12.092361 6.116333 28.773872
vertex -12.099744 6.106873 28.748137
endloop
endfacet
facet normal -0.503056 -0.754466 0.421563
outer loop
vertex -12.107905 6.096416 28.719687
vertex -12.155544 6.035403 28.553661
vertex -12.165854 6.004275 28.485655
endloop
endfacet
facet normal -0.522644 -0.768594 0.368925
outer loop
vertex -12.038000 6.185895 28.963221
vertex -12.099744 6.106873 28.748137
vertex -12.107905 6.096416 28.719687
endloop
endfacet
facet normal -0.503080 -0.754431 0.421598
outer loop
vertex -10.812778 3.764903 26.092978
vertex -9.230029 2.829555 26.307850
vertex -12.038000 6.185895 28.963221
endloop
endfacet
facet normal -0.503073 -0.754437 0.421596
outer loop
vertex -11.543832 4.511550 26.556730
vertex -11.254000 4.150095 26.255766
vertex -10.812778 3.764903 26.092978
endloop
endfacet
facet normal -0.503328 -0.754278 0.421576
outer loop
vertex -11.946066 5.188811 27.288687
vertex -11.835871 4.993479 27.070641
vertex -11.543832 4.511550 26.556730
endloop
endfacet
facet normal -0.476153 -0.767136 0.429861
outer loop
vertex -12.070925 5.441308 27.591528
vertex -12.019506 5.339501 27.470707
vertex -11.983930 5.269250 27.387447
endloop
endfacet
facet normal -0.502984 -0.754477 0.421630
outer loop
vertex -11.983930 5.269250 27.387447
vertex -11.946066 5.188811 27.288687
vertex -11.543832 4.511550 26.556730
endloop
endfacet
facet normal -0.503078 -0.754433 0.421597
outer loop
vertex -11.543832 4.511550 26.556730
vertex -10.812778 3.764903 26.092978
vertex -12.038000 6.185895 28.963221
endloop
endfacet
facet normal -0.502982 -0.754473 0.421640
outer loop
vertex -12.038000 6.185895 28.963221
vertex -12.107905 6.096416 28.719687
vertex -12.165854 6.004275 28.485655
endloop
endfacet
facet normal -0.643842 -0.482882 0.593542
outer loop
vertex -12.165854 6.004275 28.485655
vertex -12.171412 5.904064 28.299702
vertex -12.172424 5.885760 28.265739
endloop
endfacet
facet normal -0.504338 -0.752766 0.423068
outer loop
vertex -12.172424 5.885760 28.265739
vertex -12.177807 5.786197 28.081154
vertex -12.178130 5.773955 28.058861
endloop
endfacet
facet normal -0.502405 -0.754775 0.421786
outer loop
vertex -12.178130 5.773955 28.058861
vertex -12.176163 5.762943 28.041502
vertex -12.138829 5.641489 27.868713
endloop
endfacet
facet normal -0.487684 -0.753694 0.440578
outer loop
vertex -12.138829 5.641489 27.868713
vertex -12.132530 5.620997 27.839561
vertex -12.124803 5.596045 27.804132
endloop
endfacet
facet normal -0.502979 -0.754468 0.421652
outer loop
vertex -12.124803 5.596045 27.804132
vertex -12.096070 5.503277 27.672413
vertex -12.070925 5.441308 27.591528
endloop
endfacet
facet normal -0.503057 -0.754422 0.421641
outer loop
vertex -12.070925 5.441308 27.591528
vertex -11.983930 5.269250 27.387447
vertex -11.543832 4.511550 26.556730
endloop
endfacet
facet normal -0.503086 -0.754427 0.421598
outer loop
vertex -11.543832 4.511550 26.556730
vertex -12.038000 6.185895 28.963221
vertex -12.165854 6.004275 28.485655
endloop
endfacet
facet normal -0.501732 -0.756034 0.420329
outer loop
vertex -12.165854 6.004275 28.485655
vertex -12.172424 5.885760 28.265739
vertex -12.178130 5.773955 28.058861
endloop
endfacet
facet normal -0.504679 -0.753533 0.421292
outer loop
vertex -12.178130 5.773955 28.058861
vertex -12.138829 5.641489 27.868713
vertex -12.124803 5.596045 27.804132
endloop
endfacet
facet normal -0.503103 -0.754425 0.421580
outer loop
vertex -12.124803 5.596045 27.804132
vertex -12.070925 5.441308 27.591528
vertex -11.543832 4.511550 26.556730
endloop
endfacet
facet normal -0.503061 -0.754441 0.421603
outer loop
vertex -11.543832 4.511550 26.556730
vertex -12.165854 6.004275 28.485655
vertex -12.178130 5.773955 28.058861
endloop
endfacet
facet normal -0.503100 -0.754421 0.421592
outer loop
vertex -12.178130 5.773955 28.058861
vertex -12.124803 5.596045 27.804132
vertex -11.543832 4.511550 26.556730
endloop
endfacet
endsolid Exported from Blender-3.3.1
